Mini-Project 03 - Who Goes There? US Internal Migration and Implications for Congressional Reapportionment – STA 9750 Submission Material
…
  pop_future <- bind_rows(pop_future, next_pop)
  prev <- next_pop
}

Code

pop_2030 <- pop_future |> filter(year == 2030)

pop_2030 |>
  arrange(desc(total_population))

# A tibble: 50 × 3
   state  year total_population
   <chr> <int>            <dbl>
 1 CA     2030        44281143.
 2 TX     2030        34627308.
 3 FL     2030        26750906.
 4 NY     2030        23038299.
 5 PA     2030        15124267.
 6 IL     2030        14763354.
 7 OH     2030        13472322.
 8 GA     2030        13023183.
 9 NC     2030        12854901.
10 MI     2030        11393568.
# ℹ 40 more rows
…
